<svg xmlns="http://www.w3.org/2000/svg" width="110" height="213" viewBox="0 0 110 213">
  <defs>
    <style>
      .cls-1 {
        fill: #026c82;
      }

      .cls-2 {
        fill: #def9e7;
      }
    </style>
  </defs>
  <g id="Group_503" data-name="Group 503" transform="translate(44 -1083)">
    <path id="Rectangle_241" data-name="Rectangle 241" class="cls-1" d="M0,0H100a10,10,0,0,1,10,10V203a10,10,0,0,1-10,10H0a0,0,0,0,1,0,0V0A0,0,0,0,1,0,0Z" transform="translate(-44 1083)"/>
    <g id="Group_550" data-name="Group 550">
      <rect id="Rectangle_240" data-name="Rectangle 240" class="cls-2" width="91" height="11" rx="5" transform="translate(33 1144) rotate(90)"/>
      <rect id="Rectangle_240-2" data-name="Rectangle 240" class="cls-2" width="91" height="11" rx="5" transform="translate(16 1144) rotate(90)"/>
      <rect id="Rectangle_240-3" data-name="Rectangle 240" class="cls-2" width="91" height="11" rx="5" transform="translate(0 1144) rotate(90)"/>
    </g>
  </g>
</svg>
