<svg xmlns="http://www.w3.org/2000/svg" width="36.083" height="36.128" viewBox="0 0 36.083 36.128">
  <path id="Subtraction_1" data-name="Subtraction 1" d="M32.9,36.128H3.182A3.17,3.17,0,0,1,.042,32.442l1.88-9.015H7.457a1.058,1.058,0,1,0,0-2.117H1.922L.05,12.339A3.17,3.17,0,0,1,3.182,8.608H32.9a3.171,3.171,0,0,1,3.138,3.686L34.16,21.31H28.625a1.058,1.058,0,1,0,0,2.117H34.16L36.032,32.4a3.169,3.169,0,0,1-3.131,3.73ZM23.333,18V28.719a1.058,1.058,0,1,0,2.117,0v-12.7a1.059,1.059,0,0,0-1.646-.881l-3.175,2.117A1.058,1.058,0,0,0,21.8,19.015L23.332,18ZM10.814,25.543a1.037,1.037,0,0,0-.354.062,1.056,1.056,0,0,0-.644,1.35A4.233,4.233,0,1,0,16.6,22.369a4.233,4.233,0,1,0-6.788-4.586,1.058,1.058,0,1,0,1.994.7,2.117,2.117,0,1,1,2,2.823H12.492a1.058,1.058,0,0,0,0,2.117h1.316a2.117,2.117,0,1,1-2,2.822A1.059,1.059,0,0,0,10.814,25.543ZM34.036,6.35H2.285V3.175A3.179,3.179,0,0,1,5.46,0h25.4a3.179,3.179,0,0,1,3.175,3.175V6.349Zm-12.009-3.9a1.177,1.177,0,0,0-1.14,1.305,1.13,1.13,0,0,0,1.19,1.22,1.914,1.914,0,0,0,.806-.155L22.808,4.5a1.579,1.579,0,0,1-.671.125.776.776,0,0,1-.83-.841H23a.953.953,0,0,0,.02-.2A1.014,1.014,0,0,0,22.027,2.449ZM15.522,2.5V3.914c0,.484.144,1.06.83,1.06a.9.9,0,0,0,.806-.45h.01l.025.4h.384c-.01-.2-.02-.412-.02-.66V2.5h-.435v1.48a.72.72,0,0,1-.04.23.629.629,0,0,1-.59.4c-.352,0-.53-.261-.53-.775V2.5ZM13.407,4.54l-.065.36a1.537,1.537,0,0,0,.465.075c.686,0,1.02-.383,1.02-1.17V1.549h-.44V3.765c0,.6-.178.84-.615.84a.925.925,0,0,1-.365-.065h0Zm5.94-1.731c.361,0,.56.256.56.72V4.919h.436V3.474c0-.976-.708-1.025-.851-1.025a.892.892,0,0,0-.8.45h-.014L18.657,2.5h-.39c.011.209.02.408.02.65V4.919h.436V3.464a.614.614,0,0,1,.035-.205A.632.632,0,0,1,19.347,2.809Zm9.4-.692A1.058,1.058,0,1,0,29.8,3.175,1.06,1.06,0,0,0,28.744,2.117Zm-21.167,0A1.058,1.058,0,1,0,8.635,3.175,1.06,1.06,0,0,0,7.577,2.117ZM22.6,3.474H21.312a.732.732,0,0,1,.675-.71.565.565,0,0,1,.42.161.8.8,0,0,1,.19.548Z" transform="translate(0)" fill="#1d3634"/>
</svg>
