<svg xmlns="http://www.w3.org/2000/svg" width="26.449" height="28.213" viewBox="0 0 26.449 28.213">
  <path id="exit-icon-fr-location" d="M23.73,19.561V16.034H14.914V12.508H23.73V8.981l5.29,5.29ZM21.967,17.8v7.053H13.15v5.29l-10.58-5.29V1.928h19.4v8.816H20.2V3.691H6.1L13.15,7.218v15.87H20.2V17.8Z" transform="translate(-2.571 -1.928)" fill="#214c40"/>
</svg>
