<svg id="Component_16_1" data-name="Component 16 – 1" xmlns="http://www.w3.org/2000/svg" width="36.082" height="36.128" viewBox="0 0 36.082 36.128">
  <path id="Path_38" data-name="Path 38" d="M28.934,134.7H34.47l1.88-9.015A3.171,3.171,0,0,0,33.21,122H3.491A3.17,3.17,0,0,0,.36,125.73L2.231,134.7H7.767a1.058,1.058,0,0,1,0,2.117H2.231l-1.88,9.015a3.171,3.171,0,0,0,3.139,3.686H33.21a3.17,3.17,0,0,0,3.131-3.73l-1.871-8.971H28.934a1.058,1.058,0,0,1,0-2.117Zm-10.584,4.234a4.234,4.234,0,0,1-8.225,1.411,1.058,1.058,0,1,1,1.995-.7,2.117,2.117,0,1,0,2-2.823H12.8a1.058,1.058,0,0,1,0-2.117h1.316a2.117,2.117,0,1,0-2-2.823,1.058,1.058,0,1,1-1.995-.7,4.233,4.233,0,1,1,6.789,4.586A4.224,4.224,0,0,1,18.351,138.935Zm7.409,3.175a1.058,1.058,0,1,1-2.117,0V131.386l-1.53,1.02a1.058,1.058,0,0,1-1.174-1.761l3.175-2.117a1.058,1.058,0,0,1,1.645.881Z" transform="translate(-0.31 -113.391)" fill="#1d3634"/>
  <path id="Path_39" data-name="Path 39" d="M32.691,3.175V6.351H64.442V3.175A3.179,3.179,0,0,0,61.267,0h-25.4A3.179,3.179,0,0,0,32.691,3.175ZM59.15,2.117a1.058,1.058,0,1,1-1.058,1.058A1.058,1.058,0,0,1,59.15,2.117Zm-21.168,0a1.058,1.058,0,1,1-1.058,1.058A1.058,1.058,0,0,1,37.983,2.117Z" transform="translate(-30.406)" fill="#1d3634"/>
  <rect id="Rectangle_102" data-name="Rectangle 102" width="17" height="20" transform="translate(9 11.919)" fill="#1c3634"/>
</svg>
