<svg id="drink" xmlns="http://www.w3.org/2000/svg" width="15.403" height="24.563" viewBox="0 0 15.403 24.563">
  <path id="Path_602" data-name="Path 602" d="M199.834,1742.122c.207-.186.316-.708-.057-.779-.264-.05-.681.392-.493.623S199.627,1742.308,199.834,1742.122Zm.042,1.588c.111-.155-.073-.338-.292-.322-.172.012-.476.182-.241.385A.327.327,0,0,0,199.876,1743.709Zm1.278.079a.49.49,0,0,0,.224-.628.512.512,0,0,0-.508-.257c-.245-.01-.376.223-.323.611S200.94,1743.877,201.154,1743.788Zm-1.07,1.448c-.2,0-.422.251-.262.435s.235.2.395.045S200.354,1745.241,200.084,1745.236Zm1.076.656c.19.255.4.118.555-.114s-.082-.459-.4-.437A.328.328,0,0,0,201.16,1745.892Zm2.465.58a.524.524,0,0,0-.34.71.485.485,0,0,0,.76.018C204.223,1746.967,204.322,1746.3,203.624,1746.472Zm-3.418.786a.526.526,0,0,0-.406.813c.248.374.686.342.774-.13S200.553,1747.307,200.207,1747.258Zm-.812,1.968a.433.433,0,0,0-.319.66c.2.353.439.311.741.093S199.831,1749.17,199.395,1749.226Zm4.114-.3c-.336-.063-.633.389-.481.794s.562.326.883.034S203.98,1749.016,203.509,1748.927Zm4.167-16.773a17.1,17.1,0,0,0-2.315-1.545c-.355-.17-.88.015-1.216,1.458s-.595,3.273-.595,3.273l-1.363.1s-.157-3.513.132-3.582.546-.235.668.1.832.331.8-.034a4.764,4.764,0,0,0-.185-.867,6.685,6.685,0,0,1,1.413-1.106c.385-.1.692.1.876-.064a.437.437,0,0,0-.225-.742c-.449-.114-2.291-.2-2.762-.289a3.638,3.638,0,0,0-.836-.062.6.6,0,0,0-.715-.413c-.581.091-.806.695-.567.946,0,0-2.513,1.455-3.17,1.845a.314.314,0,0,0,.032.438c.214.254.411.264.6.128s.607-.412.607-.412l.968.86s-.424.569-.064.812.612,0,.713-.3a3.668,3.668,0,0,1,.208-.5l.678-.1.12,3.344-2.129.008s-.543-3.436-3.885-2.948a3.775,3.775,0,0,0-2.785,4.118s.28,3.186,3.958,2.6a36.677,36.677,0,0,1,.63,6.66c-.063,2.5-1.072,6.147.484,6.67s4.039.344,5.558.38a2.725,2.725,0,0,0,2.824-2.9c-.079-1.756-.992-6.927-.685-9.446s.9-4.47.29-4.769a2.835,2.835,0,0,0-1.291-.249s.378-4.237.83-4.074.836.723,1.264,1.23.951.959,1.263.545S208.25,1732.652,207.676,1732.155Zm-4.3,4.106c.011.146-.237,1.119-.323,1.615s-.08,1.254-.252,1.242-.683.025-.639-.37-.058-2.492.039-2.5C202.271,1736.243,203.362,1736.115,203.373,1736.261Zm-.9-6.616a4.792,4.792,0,0,1,1.4.094c.224.057-.007.245-.239.409s-.271.313-.455.473S202.205,1729.7,202.477,1729.645Zm-2.194,1.8c-.309.463-.389.028-.751-.239s-.154-.429.2-.553,1.241-.433,1.241-.433C201.125,1730.232,200.591,1730.98,200.282,1731.444Zm.785.017c-.51.061.073-.348.3-.56s.336-.758.458-.767c.1-.007.318.344.589.691s.124.358-.1.374S201.577,1731.4,201.067,1731.46Zm.353,4.869a10.285,10.285,0,0,1,.015,2.569c-.059.543-.116.424-.469.621s-.336.1-.619-.1a2.669,2.669,0,0,0-1.3-.371c-.541-.035-.964.877-1.1.986s-.08-.092-.094-.287-.285-.821-.116-.921a3.218,3.218,0,0,0,1.535-2.461A8.1,8.1,0,0,1,201.42,1736.329Zm-3.282.972c-.26.46-.5.526-.6.508a1.014,1.014,0,0,1-.2-.768c.087-.153.2.108.338.269s.221.009.2-.211-.36-.4-.235-.546.56-.041.785.017S198.4,1736.842,198.138,1737.3Zm-3.041-3.792a3.023,3.023,0,0,1,.913-.238c.17-.012.155.112.115.579s-.246,1-.07,1.057.251.08.352-.539.249-.948.4-.958a1.29,1.29,0,0,1,.661.344c.158.16.411.264.176.4a2.37,2.37,0,0,0-.817.549c-.246.311-.255.532-.476.524s-.386-.266-.574-.154C195.774,1735.074,194.814,1733.652,195.1,1733.509Zm.529,4.929a1.629,1.629,0,0,1,.148-.989c.144-.377.321-.978.127-.94s-.476.524-.516.992-.146,1.014-.248.972a2.377,2.377,0,0,1-1.516-1.334,2.492,2.492,0,0,1,.034-2.229c.321-.635.622-1.22.99-.855s.965,1.154.782,1.338-.33.171-.586.018-.939-.47-1.1-.263-.234.482.233.522,1.306.125,1.171.282a4.255,4.255,0,0,1-.695.54c-.21.137-.607.411-.471.6s.27.347.5.111.637-1,.908-.971.4.167.574.154a1.315,1.315,0,0,0,.45-.2l.413,1.977S195.715,1738.652,195.627,1738.438Zm.945-2.834a3.679,3.679,0,0,1,.615-.632,2.182,2.182,0,0,1,.747-.495c.285-.118.514,1.015.5,1.212s-.266.044-.56.041-.827.06-1.071.078S196.552,1735.679,196.571,1735.6Zm7.88,6.746a62.834,62.834,0,0,0,.466,7.43c.238,1.6-1.217,1.434-2.341,1.467a23.768,23.768,0,0,1-4.261-.376c-.6-.177.131-3.925.17-5.078s-.326-4.822-.326-4.822l.167-.062c.167-.061.165-.428.622-.877s.62-.216,1.31.174a.833.833,0,0,0,1.094-.1,11.969,11.969,0,0,0,.114,1.24c.08.435.277.445.543.4s.1-1.3.069-1.742.355-.173.515.012.028.389-.1,1.329-.166,2.093-.4,3.993-.951,4.768-.86,5.006.71.34.81.039,1.448-10.065,1.448-10.065c.087-.153.219-.016.365-.027s.363-.393.645-.561S204.517,1740.9,204.451,1742.35Zm.551-5.889a8.037,8.037,0,0,0-.221,1.337,10.924,10.924,0,0,1-.067,1.106.958.958,0,0,0-.75.128c-.276.24-.363.394-.374.248a10.652,10.652,0,0,1,.243-1.364c.111-.5.3-1.245.3-1.245.035-.2-.056-.436.267-.362S205.035,1736.238,205,1736.461Zm2.185-3.952s.024-.013.063-.029A.434.434,0,0,0,207.188,1732.509Zm.479.529c-.161.134-.177-.085-.138-.21.034-.106.015-.413-.2-.375a.34.34,0,0,1,.339.584Z" transform="translate(-192.671 -1728.369)" fill="#1d3634"/>
</svg>
