<svg id="Component_14_1" data-name="Component 14 – 1" xmlns="http://www.w3.org/2000/svg" width="50" height="50" viewBox="0 0 50 50">
  <g id="Group_166" data-name="Group 166" transform="translate(4.138 -0.208)">
    <rect id="Rectangle_64" data-name="Rectangle 64" width="3" height="42" rx="1" transform="translate(41.862 0.208) rotate(90)" fill="#a1aa3b"/>
    <rect id="Rectangle_64-2" data-name="Rectangle 64" width="3" height="42" rx="1" transform="translate(41.862 7.208) rotate(90)" fill="#a1aa3b"/>
    <rect id="Rectangle_64-3" data-name="Rectangle 64" width="3" height="42" rx="1" transform="translate(41.862 15.208) rotate(90)" fill="#a1aa3b"/>
    <rect id="Rectangle_64-4" data-name="Rectangle 64" width="3" height="42" rx="1" transform="translate(41.862 22.208) rotate(90)" fill="#a1aa3b"/>
    <rect id="Rectangle_64-5" data-name="Rectangle 64" width="4" height="42" rx="1" transform="translate(41.862 28.208) rotate(90)" fill="#a1aa3b"/>
    <rect id="Rectangle_64-6" data-name="Rectangle 64" width="4" height="42" rx="1" transform="translate(41.862 36.208) rotate(90)" fill="#a1aa3b"/>
    <rect id="Rectangle_91" data-name="Rectangle 91" width="4" height="42" rx="1" transform="translate(41.862 43.208) rotate(90)" fill="#a1aa3b"/>
  </g>
  <g id="Group_167" data-name="Group 167" transform="translate(-0.208 -0.208)">
    <rect id="Rectangle_60" data-name="Rectangle 60" width="3" height="50" rx="1" transform="translate(0.208 0.208)" fill="#fff"/>
    <rect id="Rectangle_61" data-name="Rectangle 61" width="2" height="48" rx="1" transform="translate(50.208 48.208) rotate(90)" fill="#fff"/>
    <rect id="Rectangle_62" data-name="Rectangle 62" width="3" height="50" rx="1" transform="translate(47.208 0.208)" fill="#fff"/>
  </g>
</svg>
